<?xml version="1.0" encoding="UTF-8" standalone="no"?>
<svg xmlns:rdf="http://www.w3.org/1999/02/22-rdf-syntax-ns#" xmlns="http://www.w3.org/2000/svg" height="200mm" width="200mm" version="1.1" xmlns:cc="http://creativecommons.org/ns#" xmlns:dc="http://purl.org/dc/elements/1.1/" viewBox="0 0 708.66141 708.66142">
<defs>
<filter id="e" style="color-interpolation-filters:sRGB" height="1.0191731" width="1.0320748" y="-.0095865922" x="-.016037384">
<feGaussianBlur stdDeviation="1.4445181"/>
</filter>
<filter id="d" style="color-interpolation-filters:sRGB" height="1.0191731" width="1.0320748" y="-.0095865922" x="-.016037384">
<feGaussianBlur stdDeviation="1.4445181"/>
</filter>
<filter id="b" style="color-interpolation-filters:sRGB" height="1.0191731" width="1.0320748" y="-.0095865922" x="-.016037384">
<feGaussianBlur stdDeviation="1.4445181"/>
</filter>
<filter id="c" style="color-interpolation-filters:sRGB" height="1.0191731" width="1.0320748" y="-.0095865922" x="-.016037384">
<feGaussianBlur stdDeviation="1.4445181"/>
</filter>
<filter id="a" style="color-interpolation-filters:sRGB" height="1.0233303" width="1.0247093" y="-.011665128" x="-.012354667">
<feGaussianBlur stdDeviation="3.0514508"/>
</filter>
</defs>
<metadata>
<rdf:RDF>
<cc:Work rdf:about="">
<dc:format>image/svg+xml</dc:format>
<dc:type rdf:resource="http://purl.org/dc/dcmitype/StillImage"/>
<dc:title/>
</cc:Work>
</rdf:RDF>
</metadata>
<g transform="translate(-42.451169,35.358993)">
<g transform="matrix(-1,0,0,1,768.49691,-32.789181)">
<g transform="translate(4.0260314e-7,2.1100902e-5)" filter="url(#a)">
<g transform="translate(-54.548238,125.25892)">
<ellipse rx="108.08632" ry="180.81731" filter="url(#b)" cy="95.747742" cx="457.59909"/>
<ellipse rx="108.08632" ry="180.81731" cy="95.747711" cx="457.59909"/>
<g transform="matrix(.63802896 .77001237 -.77001237 .63802896 324.21738 -275.27264)">
<ellipse rx="108.08632" ry="180.81731" filter="url(#c)" cy="95.747742" cx="457.59909"/>
<ellipse rx="108.08632" ry="180.81731" cy="95.747711" cx="457.59909"/>
</g>
</g>
<g stroke-linejoin="round" stroke="#000" stroke-linecap="round" stroke-width="15.8999996" fill="none">
<path d="m163.64471 165.44827-2.0203-127.27922-111.116783 40.406102"/>
<path d="m244.45692 177.5701 8.08122-139.40105-111.11678 54.548237"/>
</g>
<g>
<path d="m197.14258 149.50586c-61.53965 0.00046-111.427272 49.88808-111.427736 111.42773 0.03684 26.05259 9.201247 51.2687 25.900386 71.26563l-0.0742 0.0684c0.12012 0.0868 0.24118 0.17113 0.36132 0.25781 87.93414 81.84958 240.68449 130.19425 276.66993 228.4082-0.00031 25.24698 20.46591 45.71408 45.71289 45.71485 25.24774 0.00031 45.71515-20.46711 45.71484-45.71485 0.87167-96.25252-80.69244-267.5576-205.45898-380.16211l-0.0899 0.084c-20.73803-20.06603-48.45185-31.30434-77.30855-31.34966z"/>
<path d="m291.32237 195.8482c17.02058 19.76836 26.40353 44.97592 26.45126 71.06204-0.0006 60.31845-48.89822 109.21607-109.21667 109.21668-29.79808-0.0148-57.28617-7.6584-77.87831-29.1965 50.25855 49.79503 80.98139 50.51996 91.01029 50.35379 89.83944-0.00056 126.78541-71.6079 120.27244-130.37397-2.20962-19.93725-18.95688-43.56322-50.63901-71.06204z"/>
<path d="m359.42512 274.6401c13.53342 17.68669 20.994 40.23981 21.03195 63.57898-0.00048 53.96672-38.88001 97.71526-86.84048 97.71581-23.69308-0.0133-38.98345-4.32657-60.91253-21.07126 44.50732 38.99561 63.37986 40.14929 71.35405 40.00061 71.43323-0.0005 100.80975-64.06735 95.63115-116.64516-1.75692-17.83779-15.07302-38.97587-40.26414-63.57898z"/>
<path d="m428.24079 388.24489c6.89349 14.68198 8.67811 31.88516 5.03099 48.49711-8.49625 38.39782-43.18663 63.49899-77.4837 56.06545-16.94105-3.68193-30.48399-11.93546-44.20974-24.64867 30.65462 33.34726 42.97072 38.60533 48.69655 39.73555 51.08264 11.07189 82.17602-29.95896 86.75002-68.17132 1.55179-12.96409-4.64294-30.06808-18.78412-51.47812z"/>
<path d="m469.61437 488.38264c1.77979 13.09447-0.77085 26.94029-7.19045 39.03247-14.88732 27.93484-37.80054 36.08418-58.57157 29.34452-8.87491-2.87967-15.47054-7.20865-25.28187-18.41379 7.87737 20.04593 17.69751 25.97692 21.66203 28.22105 32.62169 9.68047 59.69819-4.83039 71.65414-33.55377 4.05622-9.74482 3.33545-24.56259-2.27228-44.63048z"/>
<path d="m463.15493 590.97504c-0.00001 7.67101-18.00788 18.43528-103.54063 75.00382 35.18047-57.07362 38.89088-67.33281 38.89087-75.00382 0-7.67101 14.47234-13.8896 32.32488-13.8896s32.32488 6.21859 32.32488 13.8896z"/>
</g>
</g>
<g transform="translate(-54.548238,125.25892)">
<ellipse rx="108.08632" ry="180.81731" filter="url(#e)" cy="95.747742" cx="457.59909"/>
<ellipse rx="108.08632" ry="180.81731" cy="95.747711" cx="457.59909" fill="#f9f4dd"/>
<g transform="matrix(.63802896 .77001237 -.77001237 .63802896 324.21738 -275.27264)">
<ellipse rx="108.08632" ry="180.81731" filter="url(#d)" cy="95.747742" cx="457.59909"/>
<ellipse rx="108.08632" ry="180.81731" cy="95.747711" cx="457.59909" fill="#fcf9ed"/>
</g>
</g>
<g stroke-linejoin="round" stroke="#000" stroke-linecap="round" stroke-width="15.8999996" fill="none">
<path d="m163.64471 165.44827-2.0203-127.27922-111.116783 40.406102"/>
<path d="m244.45692 177.5701 8.08122-139.40105-111.11678 54.548237"/>
</g>
<g>
<path d="m197.14258 149.50586c-61.53965 0.00046-111.427272 49.88808-111.427736 111.42773 0.03684 26.05259 9.201247 51.2687 25.900386 71.26563l-0.0742 0.0684c0.12012 0.0868 0.24118 0.17113 0.36132 0.25781 87.93414 81.84958 240.68449 130.19425 276.66993 228.4082-0.00031 25.24698 20.46591 45.71408 45.71289 45.71485 25.24774 0.00031 45.71515-20.46711 45.71484-45.71485 0.87167-96.25252-80.69244-267.5576-205.45898-380.16211l-0.0899 0.084c-20.73803-20.06603-48.45185-31.30434-77.30855-31.34966z" fill="#ffd200"/>
<g>
<path d="m291.32237 195.8482c17.02058 19.76836 26.40353 44.97592 26.45126 71.06204-0.0006 60.31845-48.89822 109.21607-109.21667 109.21668-29.79808-0.0148-57.28617-7.6584-77.87831-29.1965 50.25855 49.79503 80.98139 50.51996 91.01029 50.35379 89.83944-0.00056 126.78541-71.6079 120.27244-130.37397-2.20962-19.93725-18.95688-43.56322-50.63901-71.06204z"/>
<path d="m359.42512 274.6401c13.53342 17.68669 20.994 40.23981 21.03195 63.57898-0.00048 53.96672-38.88001 97.71526-86.84048 97.71581-23.69308-0.0133-38.98345-4.32657-60.91253-21.07126 44.50732 38.99561 63.37986 40.14929 71.35405 40.00061 71.43323-0.0005 100.80975-64.06735 95.63115-116.64516-1.75692-17.83779-15.07302-38.97587-40.26414-63.57898z"/>
<path d="m428.24079 388.24489c6.89349 14.68198 8.67811 31.88516 5.03099 48.49711-8.49625 38.39782-43.18663 63.49899-77.4837 56.06545-16.94105-3.68193-30.48399-11.93546-44.20974-24.64867 30.65462 33.34726 42.97072 38.60533 48.69655 39.73555 51.08264 11.07189 82.17602-29.95896 86.75002-68.17132 1.55179-12.96409-4.64294-30.06808-18.78412-51.47812z"/>
<path d="m469.61437 488.38264c1.77979 13.09447-0.77085 26.94029-7.19045 39.03247-14.88732 27.93484-37.80054 36.08418-58.57157 29.34452-8.87491-2.87967-15.47054-7.20865-25.28187-18.41379 7.87737 20.04593 17.69751 25.97692 21.66203 28.22105 32.62169 9.68047 59.69819-4.83039 71.65414-33.55377 4.05622-9.74482 3.33545-24.56259-2.27228-44.63048z"/>
</g>
<path d="m463.15493 590.97504c-0.00001 7.67101-18.00788 18.43528-103.54063 75.00382 35.18047-57.07362 38.89088-67.33281 38.89087-75.00382 0-7.67101 14.47234-13.8896 32.32488-13.8896s32.32488 6.21859 32.32488 13.8896z" fill="#ffe884"/>
</g>
</g>
</g>
</svg>
